<?xml version="1.0" encoding="UTF-8"?>
<session version="1.0">
<refactoring accessors="true" comment="Delete element from project &apos;Say Me and global&apos;&#x0D;&#x0A;- Original project: &apos;Say Me and global&apos;&#x0D;&#x0A;- Original element: &apos;Say Me and global/src/me.lukasabc123abc.global&apos;" description="Delete element" element1="/src&lt;me.lukasabc123abc.global" elements="1" flags="589830" id="org.eclipse.jdt.ui.delete" resources="0" stamp="1412013445292" subPackages="false" version="1.0"/>
</session>