<?xml version="1.0" encoding="UTF-8"?>
<session version="1.0">
<refactoring comment="Delete resource &apos;swing test&apos;" deleteContents="false" description="Delete resource &apos;swing test&apos;" element1="/swing test" flags="7" id="org.eclipse.ltk.core.refactoring.delete.resources" resources="1" stamp="1409933208573"/>
</session>