<?xml version="1.0" encoding="UTF-8"?>
<session version="1.0">
<refactoring accessors="true" comment="Delete element from project &apos;swing test&apos;&#x0D;&#x0A;- Original project: &apos;swing test&apos;&#x0D;&#x0A;- Original element: &apos;Class.java&apos;" description="Delete element" element1="/src&lt;{Class.java" elements="1" flags="589830" id="org.eclipse.jdt.ui.delete" resources="0" stamp="1409740184159" subPackages="false" version="1.0"/>
</session>